[
  {
    "name": "Charizard",
    "level": 1,
    "badges": [
      {
        "name": "Fire",
        "color": "error"
      },
      {
        "name": "Dragon",
        "color": "dark"
      }
    ]
  },
  {
    "name": "Gengar",
    "level": 1,
    "badges": [
      {
        "name": "Ghost",
        "color": "dark"
      },
      {
        "name": "Poison",
        "color": "dark"
      }
    ]
  },
  {
    "name": "Arcanine",
    "level": 1,
    "badges": [
      {
        "name": "Fire",
        "color": "error"
      }
    ]
  },
  {
    "name": "Bulbasaur",
    "level": 1,
    "badges": [
      {
        "name": "Grass",
        "color": "success"
      },
      {
        "name": "Poison",
        "color": "dark"
      }
    ]
  },
  {
    "name": "Gengar 2",
    "level": 1,
    "badges": [
      {
        "name": "Ghost",
        "color": "success"
      },
      {
        "name": "Poison",
        "color": "dark"
      }
    ]
  }
]
